{
  "cert_chain": "certificate.pem",
  "private_key": "key.pem",
  "web_root": ".",
  "blob_path": ".",
  "server_name" : "example.com",
  "rendition" : {
    "default": {"width":1024, "height" : 1024},
    "thumbnail": {"width":200, "height" : 300}
  },
  "default_rendition": "default",
  "http": {
    "address": "0.0.0.0",
    "port": 18080
  },
  "https": {
    "address": "0.0.0.0",
    "port": 44233
  }
}
